Researching The Effect Of Disability On Device Preference
…
1 Explore and familiarise with the dataset.

df.device = read_csv("csv/deviceprefs.csv")

## Parsed with column specification:
## cols(
##   Subject = col_double(),
##   Disability = col_double(),
##   Pref = col_character()
## )

df.device

## # A tibble: 30 x 3
##    Subject Disability Pref     
##      <dbl>      <dbl> <chr>    
##  1       1          1 trackball
##  2       2          1 touchpad 
##  3       3          0 touchpad 
##  4       4          0 trackball
##  5       5          1 touchpad 
##  6       6          0 touchpad 
##  7       7          0 touchpad 
##  8       8          0 touchpad 
##  9       9          1 trackball
## 10      10          1 trackball
## # … with 20 more rows
…
