Researching The User Preference On Note-taking Apps
…
df.notes = read_csv("csv/notes.csv")

## Parsed with column specification:
## cols(
##   Subject = col_double(),
##   Phone = col_character(),
##   Notes = col_character(),
##   Order = col_double(),
##   Words = col_double()
## )

df.notes

## # A tibble: 40 x 5
##    Subject Phone   Notes    Order Words
##      <dbl> <chr>   <chr>    <dbl> <dbl>
##  1       1 iPhone  Built-in     1   561
##  2       1 iPhone  Add-on       2   464
##  3       2 Android Built-in     1   428
##  4       2 Android Add-on       2   433
##  5       3 iPhone  Built-in     2   586
##  6       3 iPhone  Add-on       1   598
##  7       4 Android Built-in     2   448
##  8       4 Android Add-on       1   347
##  9       5 iPhone  Built-in     1   543
## 10       5 iPhone  Add-on       2   478
## # … with 30 more rows
…
