Investigating Complaint Against Cold Storage Milk Products
…
CS.temp.2018 = read_csv("csv/Cold_Storage_Mar2018.csv")

## Parsed with column specification:
## cols(
##   Season = col_character(),
##   Month = col_character(),
##   Date = col_double(),
##   Temperature = col_double()
## )

CS.temp.2018

## # A tibble: 35 x 4
##    Season Month  Date Temperature
##    <chr>  <chr> <dbl>       <dbl>
##  1 Summer Feb      11         4  
##  2 Summer Feb      12         3.9
##  3 Summer Feb      13         3.9
##  4 Summer Feb      14         4  
##  5 Summer Feb      15         3.8
##  6 Summer Feb      16         4  
##  7 Summer Feb      17         4.1
##  8 Summer Feb      18         4  
##  9 Summer Feb      19         3.8
## 10 Summer Feb      20         3.9
## # … with 25 more rows
…
