Cold Storage Milk Quality Maintainance Investigation
…
CS.temp = read_csv("csv/Cold_Storage_Temp_Data.csv")

## Parsed with column specification:
## cols(
##   Season = col_character(),
##   Month = col_character(),
##   Date = col_double(),
##   Temperature = col_double()
## )

CS.temp

## # A tibble: 365 x 4
##    Season Month  Date Temperature
##    <chr>  <chr> <dbl>       <dbl>
##  1 Winter Jan       1         2.3
##  2 Winter Jan       2         2.2
##  3 Winter Jan       3         2.4
##  4 Winter Jan       4         2.8
##  5 Winter Jan       5         2.5
##  6 Winter Jan       6         2.4
##  7 Winter Jan       7         2.8
##  8 Winter Jan       8         3  
##  9 Winter Jan       9         2.4
## 10 Winter Jan      10         2.9
## # … with 355 more rows
…
